<?xml version="1.0" encoding="UTF-8" standalone="no"?>
<!-- Created with Inkscape (http://www.inkscape.org/) -->

<svg
   width="1024"
   height="1024"
   viewBox="0 0 270.93333 270.93333"
   version="1.1"
   id="svg14303"
   inkscape:version="1.2.2 (b0a8486541, 2022-12-01)"
   sodipodi:docname="button_quit.svg"
   xmlns:inkscape="http://www.inkscape.org/namespaces/inkscape"
   xmlns:sodipodi="http://sodipodi.sourceforge.net/DTD/sodipodi-0.dtd"
   xmlns="http://www.w3.org/2000/svg"
   xmlns:svg="http://www.w3.org/2000/svg">
  <sodipodi:namedview
     id="namedview14305"
     pagecolor="#ffffff"
     bordercolor="#999999"
     borderopacity="1"
     inkscape:showpageshadow="2"
     inkscape:pageopacity="0"
     inkscape:pagecheckerboard="0"
     inkscape:deskcolor="#d1d1d1"
     inkscape:document-units="mm"
     showgrid="false"
     inkscape:zoom="0.70917839"
     inkscape:cx="176.26031"
     inkscape:cy="561.21281"
     inkscape:window-width="1920"
     inkscape:window-height="1163"
     inkscape:window-x="2560"
     inkscape:window-y="104"
     inkscape:window-maximized="1"
     inkscape:current-layer="layer1" />
  <defs
     id="defs14300">
    <inkscape:path-effect
       effect="fillet_chamfer"
       id="path-effect5"
       is_visible="true"
       lpeversion="1"
       nodesatellites_param="F,0,0,1,0,0,0,1 @ F,0,0,1,0,0,0,1 @ F,0,0,1,0,0,0,1 @ F,0,0,1,0,0,0,1"
       radius="0"
       unit="px"
       method="auto"
       mode="F"
       chamfer_steps="1"
       flexible="false"
       use_knot_distance="true"
       apply_no_radius="true"
       apply_with_radius="true"
       only_selected="false"
       hide_knots="false" />
    <inkscape:path-effect
       effect="fillet_chamfer"
       id="path-effect4"
       is_visible="true"
       lpeversion="1"
       nodesatellites_param="F,0,0,1,0,0,0,1 @ F,0,0,1,0,0,0,1 @ F,0,0,1,0,0,0,1 @ F,0,0,1,0,0,0,1"
       radius="0"
       unit="px"
       method="auto"
       mode="F"
       chamfer_steps="1"
       flexible="false"
       use_knot_distance="true"
       apply_no_radius="true"
       apply_with_radius="true"
       only_selected="false"
       hide_knots="false" />
    <inkscape:path-effect
       effect="fillet_chamfer"
       id="path-effect3"
       is_visible="true"
       lpeversion="1"
       nodesatellites_param="F,0,0,1,0,0,0,1 @ F,0,0,1,0,0,0,1 @ F,0,0,1,0,0,0,1 @ F,0,0,1,0,0,0,1"
       radius="0"
       unit="px"
       method="auto"
       mode="F"
       chamfer_steps="1"
       flexible="false"
       use_knot_distance="true"
       apply_no_radius="true"
       apply_with_radius="true"
       only_selected="false"
       hide_knots="false" />
    <inkscape:path-effect
       effect="fillet_chamfer"
       id="path-effect2"
       is_visible="true"
       lpeversion="1"
       nodesatellites_param="F,0,0,1,0,0,0,1 @ F,0,0,1,0,0,0,1 @ F,0,0,1,0,0,0,1 @ F,0,0,1,0,0,0,1"
       radius="0"
       unit="px"
       method="auto"
       mode="F"
       chamfer_steps="1"
       flexible="false"
       use_knot_distance="true"
       apply_no_radius="true"
       apply_with_radius="true"
       only_selected="false"
       hide_knots="false" />
    <inkscape:path-effect
       effect="fillet_chamfer"
       id="path-effect1"
       is_visible="true"
       lpeversion="1"
       nodesatellites_param="F,0,0,1,0,14.781549,0,1 @ F,0,1,1,0,14.781549,0,1 @ F,0,1,1,0,14.781549,0,1 @ F,0,1,1,0,14.781549,0,1"
       radius="0"
       unit="px"
       method="auto"
       mode="F"
       chamfer_steps="1"
       flexible="false"
       use_knot_distance="true"
       apply_no_radius="true"
       apply_with_radius="true"
       only_selected="false"
       hide_knots="false" />
    <inkscape:path-effect
       effect="fillet_chamfer"
       id="path-effect1-3"
       is_visible="true"
       lpeversion="1"
       nodesatellites_param="F,0,0,1,0,14.781549,0,1 @ F,0,1,1,0,14.781549,0,1 @ F,0,1,1,0,14.781549,0,1 @ F,0,1,1,0,14.781549,0,1"
       radius="0"
       unit="px"
       method="auto"
       mode="F"
       chamfer_steps="1"
       flexible="false"
       use_knot_distance="true"
       apply_no_radius="true"
       apply_with_radius="true"
       only_selected="false"
       hide_knots="false" />
    <inkscape:path-effect
       effect="fillet_chamfer"
       id="path-effect1-36"
       is_visible="true"
       lpeversion="1"
       nodesatellites_param="F,0,0,1,0,14.781549,0,1 @ F,0,1,1,0,14.781549,0,1 @ F,0,1,1,0,14.781549,0,1 @ F,0,1,1,0,14.781549,0,1"
       radius="0"
       unit="px"
       method="auto"
       mode="F"
       chamfer_steps="1"
       flexible="false"
       use_knot_distance="true"
       apply_no_radius="true"
       apply_with_radius="true"
       only_selected="false"
       hide_knots="false" />
    <inkscape:path-effect
       effect="fillet_chamfer"
       id="path-effect1-5"
       is_visible="true"
       lpeversion="1"
       nodesatellites_param="F,0,0,1,0,14.781549,0,1 @ F,0,1,1,0,14.781549,0,1 @ F,0,1,1,0,14.781549,0,1 @ F,0,1,1,0,14.781549,0,1"
       radius="0"
       unit="px"
       method="auto"
       mode="F"
       chamfer_steps="1"
       flexible="false"
       use_knot_distance="true"
       apply_no_radius="true"
       apply_with_radius="true"
       only_selected="false"
       hide_knots="false" />
    <inkscape:path-effect
       effect="fillet_chamfer"
       id="path-effect1-56"
       is_visible="true"
       lpeversion="1"
       nodesatellites_param="F,0,0,1,0,14.781549,0,1 @ F,0,1,1,0,14.781549,0,1 @ F,0,1,1,0,14.781549,0,1 @ F,0,1,1,0,14.781549,0,1"
       radius="0"
       unit="px"
       method="auto"
       mode="F"
       chamfer_steps="1"
       flexible="false"
       use_knot_distance="true"
       apply_no_radius="true"
       apply_with_radius="true"
       only_selected="false"
       hide_knots="false" />
    <inkscape:path-effect
       effect="fillet_chamfer"
       id="path-effect1-3-3"
       is_visible="true"
       lpeversion="1"
       nodesatellites_param="F,0,0,1,0,14.781549,0,1 @ F,0,1,1,0,14.781549,0,1 @ F,0,1,1,0,14.781549,0,1 @ F,0,1,1,0,14.781549,0,1"
       radius="0"
       unit="px"
       method="auto"
       mode="F"
       chamfer_steps="1"
       flexible="false"
       use_knot_distance="true"
       apply_no_radius="true"
       apply_with_radius="true"
       only_selected="false"
       hide_knots="false" />
  </defs>
  <g
     inkscape:label="Layer 1"
     inkscape:groupmode="layer"
     id="layer1">
    <path
       id="path8044"
       style="fill:#e7ffd3;stroke:#000000;stroke-width:8.58227;stroke-dasharray:none;stroke-opacity:1;fill-opacity:1"
       d="M 14.781549,0 H 256.15177 a 14.781549,14.781549 45 0 1 14.78155,14.781549 V 120.68511 a 14.781549,14.781549 135 0 1 -14.78155,14.78155 H 14.781549 A 14.781549,14.781549 45 0 1 0,120.68511 V 14.781549 A 14.781549,14.781549 135 0 1 14.781549,0 Z"
       sodipodi:nodetypes="ccccc"
       inkscape:path-effect="#path-effect1"
       inkscape:original-d="m 0,0 c 90.311107,0 180.62221,0 270.93332,0 0,45.155553 0,90.311107 0,135.46666 -90.31111,0 -180.622213,0 -270.93332,0 C 0,90.311107 0,45.155553 0,0 Z"
       transform="matrix(0.96962615,0,0,0.93908911,4.1146476,4.0749392)" />
    <path
       id="path8044-2"
       style="fill:#ffd0d0;fill-opacity:1;stroke:#000000;stroke-width:8.58227;stroke-dasharray:none;stroke-opacity:1"
       d="M 14.781549,0 H 256.15177 a 14.781549,14.781549 45 0 1 14.78155,14.781549 v 89.329181 a 14.781549,14.781549 135 0 1 -14.78155,14.78155 H 14.781549 A 14.781549,14.781549 45 0 1 0,104.11073 V 14.781549 A 14.781549,14.781549 135 0 1 14.781549,0 Z"
       sodipodi:nodetypes="ccccc"
       inkscape:path-effect="#path-effect1-56"
       inkscape:original-d="m 0,0 h 270.93332 l 0,118.89228 H 0 Z"
       transform="matrix(0.96962615,0,0,0.93908911,4.1607965,4.029758)" />
    <path
       id="path8044-6"
       style="fill:#d3e0ff;fill-opacity:1;stroke:#000000;stroke-width:8.46667;stroke-dasharray:none;stroke-opacity:1"
       d="M 14.781549,0 H 256.15177 a 14.781549,14.781549 45 0 1 14.78155,14.781549 V 120.68511 a 14.781549,14.781549 135 0 1 -14.78155,14.78155 H 14.781549 A 14.781549,14.781549 45 0 1 0,120.68511 V 14.781549 A 14.781549,14.781549 135 0 1 14.781549,0 Z"
       sodipodi:nodetypes="ccccc"
       inkscape:path-effect="#path-effect1-3"
       inkscape:original-d="m 0,0 c 90.311107,0 180.62221,0 270.93332,0 0,45.155553 0,90.311107 0,135.46666 -90.31111,0 -180.622213,0 -270.93332,0 C 0,90.311107 0,45.155553 0,0 Z"
       transform="matrix(0.97063709,0,0,0.93936727,3.9777031,139.57462)" />
    <path
       id="path8044-6-6"
       style="fill:#b58c8c;fill-opacity:1;stroke:#000000;stroke-width:8.0846;stroke-dasharray:none;stroke-opacity:1"
       d="M 18.823853,149.00615 H 252.23915 a 14.781549,14.781549 45 0 1 14.78155,14.78155 l 0,88.19266 a 14.781549,14.781549 135 0 1 -14.78155,14.78155 H 18.823853 A 14.781549,14.781549 45 0 1 4.0423036,251.98036 l 0,-88.19266 A 14.781549,14.781549 135 0 1 18.823853,149.00615 Z"
       sodipodi:nodetypes="ccccc"
       inkscape:path-effect="#path-effect1-3-3"
       inkscape:original-d="M 4.0423036,149.00615 H 267.0207 l 0,117.75576 H 4.0423036 Z" />
    <rect
       style="fill:#000000;fill-opacity:1;stroke-width:8.18938;stroke-dasharray:none"
       id="rect2"
       width="240.59512"
       height="13.190522"
       x="15.564816"
       y="115.02135" />
    <rect
       style="fill:#000000;fill-opacity:1;stroke-width:8.18938;stroke-dasharray:none"
       id="rect2-7"
       width="240.59512"
       height="13.190522"
       x="16.620056"
       y="137.70906" />
    <rect
       style="fill:#000000;fill-opacity:1;stroke-width:8.18938;stroke-dasharray:none"
       id="rect3"
       width="16.191366"
       height="14.509574"
       x="249.30089"
       y="113.04278" />
    <rect
       style="fill:#000000;fill-opacity:1;stroke-width:6.51192;stroke-dasharray:none"
       id="rect3-5"
       width="22.522818"
       height="6.5952606"
       x="241.99663"
       y="142.85336" />
    <rect
       style="fill:#000000;fill-opacity:1;stroke-width:4.42236;stroke-dasharray:none"
       id="rect3-5-3"
       width="10.387536"
       height="6.5952606"
       x="6.9415169"
       y="142.58955" />
    <rect
       style="fill:#000000;fill-opacity:1;stroke-width:7.90129;stroke-dasharray:none"
       id="rect4"
       width="13.617578"
       height="14.643559"
       x="6.1558909"
       y="113.79072" />
    <text
       xml:space="preserve"
       style="font-size:50.8px;fill:#000000;fill-opacity:1;stroke-width:8.18938;stroke-dasharray:none"
       x="81.799599"
       y="68.608025"
       id="text5"><tspan
         sodipodi:role="line"
         id="tspan5"
         style="font-style:normal;font-variant:normal;font-weight:normal;font-stretch:normal;font-size:50.8px;font-family:'Shantell Sans';-inkscape-font-specification:'Shantell Sans';stroke-width:8.18938"
         x="81.799599"
         y="68.608025">Quit</tspan></text>
    <text
       xml:space="preserve"
       style="font-size:50.8px;fill:#000000;fill-opacity:1;stroke-width:8.18938;stroke-dasharray:none"
       x="81.799599"
       y="216.9845"
       id="text5-9"><tspan
         sodipodi:role="line"
         id="tspan5-1"
         style="font-style:normal;font-variant:normal;font-weight:normal;font-stretch:normal;font-size:50.8px;font-family:'Shantell Sans';-inkscape-font-specification:'Shantell Sans';stroke-width:8.18938"
         x="81.799599"
         y="216.9845">Quit</tspan></text>
  </g>
</svg>
