1,16,100,textures/cherry.png
2,32,200,textures/strawberry.png
3,96,300,textures/apple.png
4,125,400,textures/peach.png
5,150,500,textures/orange.png
6,200,600,textures/canteloupe.png
7,300,700,textures/watermelon.png